<svg width="59" height="94" viewBox="0 0 59 94" fill="none" xmlns="http://www.w3.org/2000/svg">
<g clip-path="url(#clip0)">
<path fill-rule="evenodd" clip-rule="evenodd" d="M45.5905 92.4091L6.56087 66.8794C6.56087 66.8794 1.6655 64.0526 0.544712 58.7848C-1.02897 51.3889 4.16034 45.0486 4.16034 45.0486L54.8151 78.193C58.7223 80.7524 59.7893 85.9865 57.2774 89.9351C54.6973 93.9907 49.3948 94.8857 45.5905 92.4091Z" fill="#38D200"/>
<path fill-rule="evenodd" clip-rule="evenodd" d="M8.62108 39.5773C8.62108 39.5773 2.64233 35.9501 2.64233 27.5614C2.64233 19.2004 8.6187 15.6195 8.6187 15.6195L29.9561 1.58764C33.867 -0.966473 39.0977 0.148399 41.6398 4.07746C44.182 8.00649 43.0725 13.2621 39.1617 15.8162L21.1781 27.5821L51.8199 47.6318C51.8199 47.6318 57.3352 50.8074 58.4222 56.1665C59.9388 63.6439 54.8163 69.8038 54.8163 69.8038L8.62108 39.5773Z" fill="#0F7AED"/>
<path fill-rule="evenodd" clip-rule="evenodd" d="M48.784 19.2211C46.7801 19.2215 45.3543 19.856 43.9635 20.7657L33.5466 27.5821L43.9635 34.3982C45.3679 35.3068 46.8417 35.943 48.784 35.943C53.3798 35.943 57.1057 32.1997 57.1057 27.582C57.1057 22.9644 53.3798 19.2201 48.784 19.2211Z" fill="#38D200"/>
<path fill-rule="evenodd" clip-rule="evenodd" d="M8.51046 93.762C10.5142 93.7615 11.94 93.127 13.3308 92.2173L23.7477 85.4008L13.3308 78.5847C11.9265 77.6763 10.4528 77.04 8.51046 77.04C3.91448 77.04 0.188721 80.7834 0.188721 85.401C0.188721 90.0186 3.91448 93.763 8.51046 93.762Z" fill="#0F7AED"/>
</g>
<defs>
<clipPath id="clip0">
<rect width="58.8916" height="94" fill="white"/>
</clipPath>
</defs>
</svg>
