<svg width="22" height="22" viewBox="0 0 22 22" fill="none" xmlns="http://www.w3.org/2000/svg">
<path d="M5.66797 14.0215L8.7957 9.97011L12.3634 12.7632L15.4242 8.82617" stroke="#DA3B3E" stroke-width="1.5" stroke-linecap="round" stroke-linejoin="round"/>
<ellipse cx="18.9911" cy="3.00189" rx="2.00864" ry="2.00189" stroke="#DA3B3E" stroke-width="1.5" stroke-linecap="round" stroke-linejoin="round"/>
<path d="M13.6927 1.8772H6.09811C2.95125 1.8772 1 4.09834 1 7.23463V15.6521C1 18.7884 2.91299 21 6.09811 21H15.0892C18.236 21 20.1873 18.7884 20.1873 15.6521V8.32137" stroke="#DA3B3E" stroke-width="1.5" stroke-linecap="round" stroke-linejoin="round"/>
</svg>
