<svg width="232" height="232" viewBox="0 0 232 232" fill="none" xmlns="http://www.w3.org/2000/svg">
<path d="M117.5 147.396C106.756 147.396 98 138.639 98 127.896C98 117.152 106.756 108.396 117.5 108.396C128.244 108.396 137 117.152 137 127.896C137 138.639 128.244 147.396 117.5 147.396ZM117.5 111.339C108.375 111.339 100.943 118.771 100.943 127.896C100.943 137.02 108.375 144.452 117.5 144.452C126.625 144.452 134.057 137.02 134.057 127.896C134.057 118.771 126.625 111.339 117.5 111.339Z" fill="#DF5356"/>
<path d="M128.537 114.282C127.728 114.282 127.066 113.62 127.066 112.811V102.509C127.066 97.2112 122.798 92.9431 117.5 92.9431C112.201 92.9431 107.933 97.2111 107.933 102.509V112.811C107.933 113.62 107.271 114.282 106.462 114.282C105.652 114.282 104.99 113.62 104.99 112.811V102.509C104.99 95.5922 110.583 90 117.5 90C124.417 90 130.009 95.5923 130.009 102.509V112.811C130.009 113.62 129.347 114.282 128.537 114.282Z" fill="#DF5356"/>
<path d="M117.5 131.943C115.072 131.943 113.085 129.956 113.085 127.528C113.085 125.099 115.072 123.112 117.5 123.112C119.929 123.112 121.916 125.099 121.916 127.528C121.916 129.956 119.929 131.943 117.5 131.943ZM117.5 126.056C116.691 126.056 116.029 126.718 116.029 127.528C116.029 128.337 116.691 128.999 117.5 128.999C118.31 128.999 118.972 128.337 118.972 127.528C118.972 126.718 118.31 126.056 117.5 126.056Z" fill="#DF5356"/>
<path d="M117.5 135.622C116.69 135.622 116.028 134.96 116.028 134.151V130.84C116.028 130.03 116.69 129.368 117.5 129.368C118.309 129.368 118.971 130.03 118.971 130.84V134.151C118.971 134.96 118.309 135.622 117.5 135.622Z" fill="#DF5356"/>
<path d="M2.5 143.358H14.0714V146.644H2.5V143.358Z" stroke="#F3F3F3" stroke-width="5"/>
<path d="M63.7858 115.997L63.7859 116.002C63.8013 129.846 69.3058 143.116 79.0937 152.906L79.0941 152.906C83.3895 157.2 88.3549 160.67 93.7448 163.214H43.9287V68.7852H93.7443C88.3546 71.3287 83.3893 74.7985 79.094 79.093L79.0936 79.0934C69.3063 88.8831 63.8014 102.153 63.7858 115.997Z" stroke="#F3F3F3" stroke-width="5"/>
<path d="M89.5 193.072H142.5V196.358H89.5V193.072Z" stroke="#F3F3F3" stroke-width="5"/>
<path d="M2.5 110.215H14.0714V113.501H2.5V110.215Z" stroke="#F3F3F3" stroke-width="5"/>
<path d="M41.4284 196.358H38.9284V198.858V223.715V226.215H41.4284H76.2141V229.501H19.0713V193.072H76.2141V196.358H41.4284ZM33.1427 226.215H35.6427V223.715V215.429V212.929H33.1427H24.857H22.357V215.429V223.715V226.215H24.857H33.1427ZM33.1427 209.644H35.6427V207.144V198.858V196.358H33.1427H24.857H22.357V198.858V207.144V209.644H24.857H33.1427Z" stroke="#F3F3F3" stroke-width="5"/>
<path d="M89.5 226.215H142.5V229.501H89.5V226.215Z" stroke="#F3F3F3" stroke-width="5"/>
<path d="M52.2139 209.642H179.785V212.927H52.2139V209.642Z" stroke="#F3F3F3" stroke-width="5"/>
<path d="M198.857 176.499H201.357V173.999V151.642H204.643V157.427V159.927H207.143H229.5V229.499H226.214V182.284V179.784H223.714H8.28571H5.78571V182.284V229.499H2.5V159.927H24.8571H27.3571V157.427V151.642H30.6429V173.999V176.499H33.1429H198.857Z" stroke="#F3F3F3" stroke-width="5"/>
<path d="M24.8571 93.6441H27.3571V91.1441V85.3584H30.6429V105.216H27.3571V99.4298V96.9298H24.8571H2.5V93.6441H24.8571Z" stroke="#F3F3F3" stroke-width="5"/>
<path d="M193.072 198.858V196.358H190.572H155.786V193.072H212.929V229.501H155.786V226.215H190.572H193.072V223.715V198.858ZM198.858 196.358H196.358V198.858V207.144V209.644H198.858H207.143H209.643V207.144V198.858V196.358H207.143H198.858ZM198.858 212.929H196.358V215.429V223.715V226.215H198.858H207.143H209.643V223.715V215.429V212.929H207.143H198.858Z" stroke="#F3F3F3" stroke-width="5"/>
<path d="M24.8571 126.786H27.3571V124.286V118.5H30.6429V138.357H27.3571V132.571V130.071H24.8571H2.5V126.786H24.8571Z" stroke="#F3F3F3" stroke-width="5"/>
<path d="M161.219 89.8922C155.814 80.5299 147.752 73.2511 138.297 68.7852H188.071V163.214H138.297C147.752 158.748 155.814 151.469 161.219 142.107L161.22 142.106C170.546 125.951 170.546 106.048 161.22 89.8924L161.219 89.8922Z" stroke="#F3F3F3" stroke-width="5"/>
<path d="M19.0713 19.0723H105.214V22.358H19.0713V19.0723Z" stroke="#F3F3F3" stroke-width="5"/>
<path d="M130.929 41.4286V38.9286H128.429H2.5V2.5H229.5V38.9286H174H171.5V41.4286V49.7143V52.2143H174H229.5V63.7857H207.143H204.643V66.2857V72.0714H201.357V58V55.5H198.857H33.1429H30.6429V58V72.0714H27.3571V66.2857V63.7857H24.8571H2.5V52.2143H128.429H130.929V49.7143V41.4286ZM194.714 5.78571H192.214V8.28571V16.5714V19.0714H194.714H212.929V33.1429V35.6429H215.429H223.714H226.214V33.1429V8.28571V5.78571H223.714H194.714ZM178.143 5.78571H175.643V8.28571V16.5714V19.0714H178.143H186.429H188.929V16.5714V8.28571V5.78571H186.429H178.143ZM116 35.6429H118.5V33.1429V8.28571V5.78571H116H8.28571H5.78571V8.28571V33.1429V35.6429H8.28571H116ZM165.714 52.2143H168.214V49.7143V41.4286V38.9286H165.714H149.143H146.643V41.4286V49.7143V52.2143H149.143H165.714Z" stroke="#F3F3F3" stroke-width="5"/>
<path d="M217.929 77.0723H229.5V80.358H217.929V77.0723Z" stroke="#F3F3F3" stroke-width="5"/>
<path d="M2.5 77.0723H14.0714V80.358H2.5V77.0723Z" stroke="#F3F3F3" stroke-width="5"/>
<path d="M207.143 130.071H204.643V132.571V138.357H201.357V118.5H204.643V124.286V126.786H207.143H229.5V130.071H207.143Z" stroke="#F3F3F3" stroke-width="5"/>
<path d="M207.143 96.9298H204.643V99.4298V105.216H201.357V85.3584H204.643V91.1441V93.6441H207.143H229.5V96.9298H207.143Z" stroke="#F3F3F3" stroke-width="5"/>
<path d="M217.929 143.358H229.5V146.644H217.929V143.358Z" stroke="#F3F3F3" stroke-width="5"/>
<path d="M217.929 110.215H229.5V113.501H217.929V110.215Z" stroke="#F3F3F3" stroke-width="5"/>
</svg>
