<svg width="100" height="104" viewBox="0 0 100 104" fill="none" xmlns="http://www.w3.org/2000/svg">
<path d="M50 100C77.6142 100 100 77.6142 100 50C100 22.3858 77.6142 0 50 0C22.3858 0 0 22.3858 0 50C0 77.6142 22.3858 100 50 100Z" fill="#FFD8B9"/>
<path d="M50.8562 41.4396L44.0225 38V53.5353C44.0225 53.5353 46.6648 56.7243 50.8789 56.7243C55.8447 56.7243 57.7354 53.7858 57.7354 53.7858V40.3007L50.8562 41.4396Z" fill="#FFBE9D"/>
<path d="M57.713 44.0365C57.713 44.0365 54.4328 47.0661 44 52.738L44.0228 42.5786L57.713 44.0365Z" fill="#FFBE9D"/>
<path d="M43.0733 53.2367C43.8407 53.0336 39.3264 54.749 39.2361 54.7716L43.2538 61.3174L58.8283 64.6354L64.697 55.1102L52.8468 51.5664L43.0733 53.2367Z" fill="#FFBE9D"/>
<path d="M65.5324 75.3796L75.035 71.2941C75.035 71.2941 71.4236 58.7668 70.4756 57.4351C69.5275 56.1033 59.7314 53.0562 59.7314 53.0562C59.7314 53.0562 56.3457 58.6991 50.5447 59.0828C44.7438 59.4665 42.5544 58.8571 41.4258 53.8236C41.4258 53.8236 31.72 56.0582 30.9751 56.9159C30.2076 57.7736 25.1064 71.8584 25.1064 71.8584C25.1064 71.8584 35.1734 74.7024 35.5571 74.9056C35.9409 75.0861 36.5954 90.006 36.5954 90.006C36.5954 90.006 32.1037 101.63 31.9231 103.707L68.8052 103.617L64.9906 81.6545L65.5324 75.3796Z" fill="url(#paint0_linear_6594_9818)"/>
<path d="M32.7133 64.071C32.7133 64.071 32.781 64.229 32.8713 64.5225C32.9616 64.8385 33.0744 65.2448 33.2324 65.7639C33.5259 66.8022 33.9321 68.2468 34.3836 69.8494C34.6093 70.6394 34.8124 71.4068 34.993 72.1066C35.0833 72.4451 35.1736 72.7837 35.2639 73.0997C35.3316 73.4157 35.3993 73.7092 35.4444 73.98C35.5573 74.5217 35.625 74.9506 35.6702 75.244C35.7153 75.5375 35.7379 75.718 35.7379 75.718C35.7379 75.718 35.7153 75.6729 35.6927 75.6052C35.6702 75.5149 35.6476 75.402 35.625 75.2666C35.5573 74.9506 35.467 74.5217 35.3542 74.0026C35.2864 73.7317 35.2413 73.4383 35.151 73.1449C35.0607 72.8289 34.9704 72.5129 34.8802 72.1743C34.677 71.4746 34.4739 70.7297 34.2482 69.9171C33.8193 68.3145 33.413 66.8699 33.1421 65.8316C33.0067 65.3125 32.8938 64.9062 32.8261 64.5902C32.7358 64.229 32.6907 64.071 32.7133 64.071Z" fill="#263238"/>
<path d="M55.2387 83.6406C55.2387 83.6406 55.1936 83.6858 55.1259 83.7535C55.0356 83.8212 54.9227 83.9115 54.7873 84.0243C54.4939 84.2726 54.0876 84.6112 53.5459 85.0175C52.485 85.8301 50.9501 86.8909 49.1895 87.9292C47.4289 88.9675 45.7361 89.7576 44.5172 90.2993C43.9077 90.5701 43.3886 90.7733 43.05 90.8861C42.892 90.9539 42.7566 90.999 42.6437 91.0441C42.5534 91.0667 42.5083 91.0893 42.5083 91.0893C42.5083 91.0893 42.5534 91.0667 42.6437 91.0216C42.7566 90.9764 42.8694 90.9087 43.05 90.841C43.3886 90.7056 43.8852 90.4798 44.4946 90.209C45.7135 89.6673 47.3838 88.8321 49.1444 87.8164C50.905 86.7781 52.4398 85.7398 53.5233 84.9498C54.065 84.5435 54.4939 84.2275 54.7873 84.0018C54.9227 83.8889 55.0356 83.7986 55.1259 83.7309C55.1936 83.6632 55.2387 83.6406 55.2387 83.6406Z" fill="#263238"/>
<g opacity="0.2">
<g opacity="0.2">
<path opacity="0.2" d="M62.7101 78.6524C60.927 76.5081 58.3989 75.1086 55.8258 74.0477C53.2074 72.9643 50.3408 72.2194 47.5645 72.7612C45.0139 73.2577 42.8019 74.8152 40.6802 76.3501C39.9804 76.8466 39.2807 77.3658 38.7841 78.0429C38.2198 78.7878 37.9264 79.6681 37.6556 80.5484C36.9333 82.8281 37.001 85.4916 36.5044 87.839L36.527 88.2453C37.001 88.4033 37.2267 88.1776 37.6781 87.9293C40.319 86.4847 41.4025 82.7378 44.3142 82.0156C44.8559 81.8801 45.3976 81.8576 45.9394 81.7898C47.3388 81.6093 48.6931 81.0675 49.8894 80.2775C50.3634 79.9615 50.86 79.5778 51.4243 79.5327C52.0337 79.4875 52.598 79.8261 53.1172 80.1195C54.652 80.9773 56.3223 81.6093 58.0378 81.993C58.2635 82.0381 58.5118 82.0833 58.6924 82.2413C58.9181 82.4218 59.0309 82.7153 59.1212 83.0087C59.7758 84.8596 60.5884 86.6879 61.8073 88.2228C63.0487 89.7576 64.719 90.9765 66.6376 91.3828C66.2313 86.891 65.5993 82.1058 62.7101 78.6524Z" fill="black"/>
</g>
</g>
<g opacity="0.2">
<g opacity="0.2">
<path opacity="0.2" d="M44.7441 92.3534C46.7756 93.0531 50.1839 92.1277 52.0574 91.0894C53.9308 90.0285 55.5786 87.7713 56.0526 85.6722C52.87 87.7262 48.2202 90.8185 44.7441 92.3534Z" fill="black"/>
</g>
</g>
<g opacity="0.2">
<g opacity="0.2">
<path opacity="0.2" d="M34.2247 69.511C33.7959 68.1341 33.4573 66.6895 33.0284 65.3126H32.9833C32.6673 66.9829 32.6673 68.7209 33.0059 70.3913C33.3219 72.0616 34.2924 73.5964 35.5564 74.725C35.263 73.1224 34.789 71.2264 34.2247 69.511Z" fill="black"/>
</g>
</g>
<path d="M32.5313 60.3468C32.5087 60.3694 32.1701 59.6696 31.8993 58.7893C31.6284 57.8865 31.5156 57.1416 31.5607 57.1416C31.6058 57.1416 31.7638 57.8639 32.0347 58.7442C32.3056 59.6245 32.5539 60.3468 32.5313 60.3468Z" fill="#263238"/>
<path d="M68.1039 60.2341C68.1491 60.2341 67.6751 63.4844 67.0656 67.4796C66.4562 71.4748 65.9145 74.7025 65.8919 74.7025C65.8467 74.7025 66.3208 71.4522 66.9302 67.457C67.5396 63.4618 68.0588 60.2341 68.1039 60.2341Z" fill="#263238"/>
<path d="M52.1227 77.7252C58.4393 76.7115 62.7382 70.769 61.7244 64.4524C60.7107 58.1358 54.7683 53.837 48.4516 54.8507C42.135 55.8644 37.8362 61.8068 38.8499 68.1235C39.8637 74.4401 45.8061 78.7389 52.1227 77.7252Z" fill="#E3A91E"/>
<path d="M59.0166 70.0813C56.7519 75.463 49.9267 77.4845 45.0873 74.265C42.0056 72.2706 40.314 68.5432 40.8836 64.8829C41.7607 58.7065 48.5032 55.0723 54.0764 57.5649C58.8094 59.5781 61.1438 65.2716 59.0166 70.0813Z" fill="#FAD332"/>
<path d="M49.6706 74.2972L49.6627 72.3285C48.5322 72.3203 47.3623 71.9694 46.6745 71.4895L47.1392 70.1794C47.8396 70.6465 48.8572 71.0108 49.9494 70.9937C51.3339 70.9882 52.2705 70.1842 52.2534 69.0666C52.2491 67.9997 51.4844 67.3423 50.0341 66.7638C48.0369 65.9971 46.8013 65.1129 46.7945 63.411C46.7881 61.7979 47.9262 60.5613 49.7159 60.2493L49.708 58.2807L50.9146 58.2758L50.9222 60.1683C52.0908 60.2017 52.8922 60.5033 53.4651 60.8313L52.9876 62.116C52.5802 61.889 51.7783 61.4604 50.5209 61.4654C49.0222 61.4714 48.4542 62.3755 48.47 63.1502C48.4741 64.1663 49.2001 64.6715 50.9049 65.3632C52.9149 66.168 53.9351 67.18 53.9547 68.9073C53.9609 70.4442 52.8998 71.8964 50.8944 72.2474L50.9025 74.2795L49.6706 74.2972Z" fill="#E8A60A"/>
<path d="M27.1377 72.4451C27.1377 72.4451 25.3094 83.0312 25.0611 84.8369C24.8128 86.6427 25.3094 90.7507 26.7765 91.9696C28.2437 93.211 29.4851 93.5045 30.5234 93.3239C31.5617 93.1433 34.8346 89.7124 36.0761 88.3355C37.3175 86.9587 43.5021 75.8308 43.5021 75.8308L37.7915 73.3028L34.4509 77.3657L35.1958 74.7925L27.1377 72.4451Z" fill="#FFBE9D"/>
<path d="M34.5646 77.2305C34.5646 77.2305 34.4969 77.3433 34.3389 77.5465C34.1809 77.7722 33.9552 78.0656 33.7069 78.4042C33.436 78.7653 33.0975 79.1942 32.7137 79.6456C32.33 80.0971 31.9012 80.6162 31.382 81.0676C30.8629 81.5417 30.2986 81.8802 29.7794 82.1962C29.2603 82.5122 28.8088 82.7831 28.4477 83.054C27.7028 83.5731 27.3868 84.0471 27.3643 84.0245C27.3643 84.0245 27.3868 84.002 27.4094 83.9343C27.4545 83.8891 27.4997 83.7988 27.59 83.7085C27.748 83.5054 28.0188 83.2571 28.38 82.9637C28.7411 82.6928 29.1926 82.3994 29.7117 82.0834C30.2309 81.7674 30.7952 81.4288 31.2917 80.9774C31.7883 80.5034 32.2397 80.0294 32.6235 79.5554C33.0072 79.1039 33.3458 78.675 33.6392 78.3365C33.91 77.9979 34.1358 77.727 34.3163 77.5013C34.4518 77.3208 34.5646 77.2079 34.5646 77.2305Z" fill="#EB996E"/>
<path d="M39.0747 71.813C39.0747 71.813 40.8579 70.3233 41.4222 70.7522C41.9865 71.181 42.009 71.5873 41.7833 71.9033C41.5576 72.1968 40.2033 73.9122 40.2033 73.9122L41.1965 74.8602L42.9796 74.2734L43.7471 74.0928C43.7471 74.0928 45.5754 74.1379 45.1917 75.3568C45.1917 75.3568 47.0877 74.7474 47.4263 74.7248C47.9454 74.6796 49.2546 74.5442 49.074 75.2214C48.8934 75.8985 48.1485 76.1468 48.1485 76.1468C48.1485 76.1468 48.9837 76.4177 48.4871 77.1625C47.9905 77.9074 47.2908 78.0654 47.2908 78.0654L44.3114 79.2617C43.9502 79.3971 43.5439 79.4197 43.1828 79.2843L42.2348 78.9457L40.3839 79.7583C40.3839 79.7583 36.6596 78.6748 36.1178 75.4245L36.5918 74.4088L36.9078 73.8219C36.9078 73.8219 36.479 71.0456 36.4564 70.6619C36.4564 70.391 35.9147 69.1947 35.5987 68.495C35.4633 68.179 35.7115 67.8404 36.0501 67.9081C36.3887 67.9533 36.8401 68.1339 37.3818 68.6079C38.6684 69.6913 38.8264 70.7973 38.8264 70.7973L39.0973 71.8808" fill="#FFBE9D"/>
<path d="M37.8323 73.0771C37.8323 73.0771 37.9677 72.9868 38.1709 72.7837C38.3966 72.6031 38.6675 72.2871 39.0286 71.926C39.2092 71.7454 39.4349 71.5648 39.6606 71.3617C39.8863 71.1585 40.1572 70.9554 40.4732 70.8199C40.6312 70.7522 40.8118 70.6845 40.9924 70.6845C41.0826 70.6845 41.1729 70.6845 41.2858 70.7071C41.3309 70.7297 41.3761 70.7297 41.4212 70.7522C41.4664 70.7748 41.5115 70.7974 41.5566 70.8199C41.6469 70.8877 41.7146 70.9328 41.7824 71.0457C41.8049 71.0908 41.8275 71.1585 41.8275 71.2037L41.8726 71.3391C41.8952 71.4294 41.9404 71.5422 41.8952 71.6551C41.8726 71.7454 41.8275 71.8357 41.8049 71.9485C41.6469 72.3322 41.3986 72.6257 41.1729 72.9191C40.9472 73.2125 40.6989 73.4834 40.4506 73.7091C39.9541 74.1831 39.4575 74.5894 38.9835 74.77C38.4869 74.9731 38.0129 74.8828 37.7646 74.7474C37.6292 74.6797 37.5389 74.612 37.4937 74.5443C37.4486 74.4766 37.426 74.454 37.426 74.454C37.426 74.4314 37.5163 74.5894 37.7872 74.7023C38.0355 74.8151 38.4869 74.8828 38.9383 74.6797C39.4123 74.4766 39.8863 74.0703 40.3603 73.6188C40.6086 73.3705 40.8343 73.1223 41.0601 72.8288C41.2858 72.5354 41.5115 72.2194 41.6695 71.8808C41.7146 71.7905 41.7372 71.7002 41.7598 71.61C41.7824 71.5422 41.7598 71.4519 41.7372 71.3617L41.6921 71.2262C41.6695 71.1585 41.6695 71.1359 41.6469 71.1134C41.6018 71.0457 41.5341 70.9779 41.4664 70.9328C41.4212 70.9102 41.3986 70.8877 41.3535 70.8651C41.3309 70.8425 41.2858 70.8425 41.2406 70.8199C41.1504 70.7974 41.0826 70.7974 40.9924 70.7974C40.8343 70.7974 40.6538 70.8651 40.5183 70.9102C40.2249 71.0457 39.9541 71.2488 39.7283 71.4294C39.48 71.61 39.2769 71.7905 39.0963 71.9711C38.7352 72.3322 38.4192 72.6257 38.1935 72.8062C38.0806 72.8965 37.9903 72.9643 37.9226 73.0094C37.8549 73.0545 37.8323 73.0771 37.8323 73.0771Z" fill="#EB996E"/>
<path d="M39.1218 71.8809C39.1218 71.926 38.7832 71.9486 38.3769 71.9486C37.9707 71.9486 37.6321 71.926 37.6321 71.8809C37.6321 71.8357 37.9707 71.8132 38.3769 71.8132C38.7832 71.8132 39.1218 71.8583 39.1218 71.8809Z" fill="#EB996E"/>
<path d="M40.0207 75.4019C40.0207 75.4019 40.0658 75.3793 40.1561 75.3342C40.269 75.2891 40.3819 75.2439 40.5399 75.1762C40.901 75.0408 41.375 74.8376 41.9844 74.5893C42.2779 74.4765 42.6165 74.3185 43.0002 74.2282C43.3613 74.1153 43.7902 74.0476 44.2416 74.1153C44.4673 74.1605 44.693 74.2282 44.8962 74.3411C45.0993 74.4539 45.3025 74.6345 45.3251 74.9053C45.3476 75.1762 45.2122 75.4245 45.009 75.5825C44.8059 75.7405 44.5576 75.8308 44.3319 75.9211C43.4065 76.2822 42.5262 76.6208 41.7136 76.9368C41.3073 77.0948 40.9236 77.2528 40.5399 77.3205C40.1561 77.4108 39.7724 77.4108 39.4564 77.3205C39.1178 77.2302 38.8696 77.0271 38.7341 76.8014C38.5987 76.5756 38.5761 76.3274 38.5535 76.1468C38.531 75.9662 38.531 75.8308 38.5535 75.7179C38.5535 75.6276 38.5535 75.5599 38.5761 75.5599C38.5987 75.5599 38.5761 75.7631 38.6213 76.1242C38.6438 76.3048 38.689 76.5305 38.8244 76.7337C38.9598 76.9594 39.1856 77.1399 39.5016 77.2077C39.8176 77.2754 40.1787 77.2754 40.5399 77.1851C40.901 77.0948 41.2847 76.9594 41.691 76.8014C42.5036 76.4854 43.3839 76.1242 44.3093 75.7631C44.535 75.6728 44.7608 75.5825 44.9413 75.4471C45.1219 75.3116 45.2348 75.0859 45.2122 74.8828C45.1896 74.6796 45.0091 74.5216 44.8285 74.4088C44.6479 74.2959 44.4448 74.2282 44.219 74.183C43.8127 74.1153 43.3839 74.183 43.0227 74.2733C42.6616 74.3636 42.323 74.4991 42.007 74.6345C41.3976 74.8602 40.9236 75.0408 40.5624 75.1762C40.4044 75.2439 40.269 75.2891 40.1561 75.3116C40.0658 75.3793 40.0207 75.4019 40.0207 75.4019Z" fill="#EB996E"/>
<path d="M45.2145 75.3793C45.2145 75.3793 45.2597 75.3568 45.35 75.3116C45.4402 75.2665 45.5757 75.2213 45.7111 75.1536C46.0271 75.0408 46.5011 74.8376 47.1106 74.7248C47.4266 74.657 47.7651 74.6119 48.1263 74.6345C48.3069 74.6345 48.51 74.657 48.6906 74.7022C48.7809 74.7248 48.8937 74.7699 48.9614 74.8602C49.0291 74.9505 49.0743 75.0633 49.0743 75.1762C49.0743 75.4019 48.9389 75.6276 48.7809 75.7631C48.6229 75.9211 48.4197 76.0113 48.2391 76.1468C47.8554 76.3725 47.4266 76.5756 46.9977 76.7562C46.1174 77.1174 45.2371 77.3656 44.4471 77.5914C44.0634 77.7042 43.6797 77.8171 43.3185 77.9074C42.9574 77.9977 42.6414 78.1105 42.3254 78.1557C42.0093 78.2008 41.7159 78.2008 41.4676 78.1331C41.2193 78.0654 41.0388 77.9299 40.9259 77.7945C40.8131 77.6591 40.7453 77.5236 40.7228 77.4334C40.7002 77.3431 40.7002 77.2979 40.7002 77.2979C40.7228 77.2979 40.7228 77.5011 40.9485 77.7494C41.0613 77.8622 41.2419 77.9751 41.4902 78.0428C41.7159 78.1105 42.0093 78.1105 42.3028 78.0428C42.5962 77.9977 42.9348 77.8848 43.2734 77.7719C43.6345 77.6591 43.9957 77.5462 44.3794 77.4334C45.1694 77.2076 46.0271 76.9594 46.9074 76.5982C47.3363 76.4176 47.7651 76.2145 48.1489 75.9888C48.3294 75.8759 48.5326 75.7631 48.6906 75.6276C48.8486 75.4922 48.9614 75.3116 48.9389 75.1311C48.9389 74.9505 48.826 74.7925 48.6454 74.7473C48.4649 74.7022 48.2843 74.7022 48.1037 74.6796C47.7426 74.657 47.404 74.7022 47.1106 74.7473C46.5011 74.8602 46.0271 75.0408 45.7111 75.1311C45.5531 75.1762 45.4403 75.2213 45.3274 75.2665C45.2597 75.3793 45.2145 75.3793 45.2145 75.3793Z" fill="#EB996E"/>
<path d="M58.646 77.0271C58.646 77.0271 65.1692 93.4819 68.8484 93.9108C72.7759 94.3622 76.5679 90.8862 75.8682 84.9047C75.5973 82.6024 73.9947 71.7679 73.9947 71.7679L65.8238 75.2666L67.9907 79.7583L64.7855 74.7474L58.646 77.0271Z" fill="#FFBE9D"/>
<path d="M73.4084 88.1098C73.3858 88.1098 73.4084 87.9066 73.3858 87.5229C73.3632 87.1392 73.3181 86.5974 73.1375 85.9429C72.957 85.3109 72.5732 84.566 71.8961 83.9791C71.5801 83.6857 71.1512 83.46 70.7901 83.1214C70.4064 82.8054 70.0678 82.4217 69.7292 82.038C68.3749 80.4579 67.3592 78.8554 66.6369 77.7268C66.2757 77.1625 65.9823 76.6885 65.8017 76.3499C65.7114 76.1919 65.6437 76.079 65.576 75.9662C65.5309 75.8759 65.5083 75.8307 65.5083 75.8307C65.5083 75.8307 65.5534 75.8759 65.5986 75.9436C65.6663 76.0339 65.734 76.1693 65.8469 76.3047C66.0726 76.6433 66.366 77.0948 66.7272 77.6591C67.472 78.7876 68.4878 80.3677 69.8421 81.9251C70.1806 82.3088 70.5192 82.67 70.9029 82.986C71.2641 83.3245 71.6704 83.5503 72.0089 83.8663C72.6861 84.4757 73.0698 85.2431 73.2504 85.8977C73.431 86.5523 73.4535 87.1166 73.4535 87.5003C73.4535 87.6809 73.4535 87.8389 73.431 87.9292C73.4084 88.0646 73.4084 88.1098 73.4084 88.1098Z" fill="#EB996E"/>
<path d="M62.3246 68.4499C62.6632 69.0368 63.4532 70.8199 63.4532 70.8199C63.4532 70.8199 65.5749 73.8671 65.4621 75.8534C65.4395 76.2371 64.2206 77.0497 64.2206 77.0497C64.2206 77.0497 60.3609 79.9615 59.4129 80.142C58.4874 80.3452 57.088 79.4423 56.93 79.3972C56.772 79.352 51.5579 76.034 51.5353 75.56C51.4902 74.77 52.0996 74.5442 52.0996 74.5442L58.0134 74.2057L60.8349 71.9936L60.6995 70.3459" fill="#FFBE9D"/>
<path d="M62.0333 74.2734C62.0333 74.2734 61.9204 74.3636 61.7173 74.5216C61.4916 74.6796 61.1756 74.8828 60.8144 75.1311C60.4307 75.3794 60.0018 75.6728 59.4601 76.0114C59.3021 76.1017 59.1216 76.0791 58.9861 76.0791C58.8281 76.0791 58.6701 76.0791 58.5121 76.1017C58.1961 76.1242 57.8575 76.1468 57.4964 76.1694C56.7967 76.2371 56.1421 76.2822 55.5327 76.2597C55.2166 76.2597 54.9232 76.1919 54.6749 76.0791C54.4266 75.9437 54.2461 75.6954 54.2461 75.4471C54.2235 75.1988 54.3364 74.9956 54.4492 74.8602C54.5621 74.7248 54.6975 74.6345 54.8104 74.5668C54.9232 74.4991 55.0135 74.4765 55.0812 74.4539C55.1489 74.4314 55.1715 74.4314 55.1715 74.4314C55.1715 74.4539 55.0361 74.4765 54.8104 74.6119C54.6975 74.6796 54.5846 74.7699 54.4718 74.9054C54.3589 75.0408 54.2912 75.2439 54.3138 75.4471C54.3138 75.6728 54.4718 75.8759 54.6975 75.9888C54.9232 76.1017 55.2166 76.1468 55.5101 76.1468C56.1195 76.1468 56.7741 76.1017 57.4738 76.0565C57.8124 76.034 58.151 75.9888 58.4895 75.9888C58.6475 75.9888 58.8055 75.9662 58.9636 75.9662C59.1216 75.9662 59.2796 75.9888 59.3924 75.9211C59.889 75.6051 60.3404 75.3117 60.7467 75.0634C61.1304 74.8376 61.4239 74.6345 61.6722 74.4991C61.8979 74.3185 62.0333 74.2508 62.0333 74.2734Z" fill="#EB996E"/>
<path d="M62.2339 77.1175C62.2339 77.1175 62.1888 77.1401 62.1211 77.1401C62.0308 77.1626 61.9179 77.1852 61.7825 77.2078C61.4665 77.2755 61.0376 77.3432 60.5411 77.4335C59.9994 77.5238 59.3673 77.6366 58.6902 77.7721C58.329 77.8398 57.9679 77.9075 57.5842 77.9752C57.4036 77.9978 57.2005 78.0429 56.9973 78.0655C56.7942 78.0881 56.5685 78.0655 56.3653 77.9526C56.1847 77.8398 56.0267 77.7044 55.8687 77.6141C55.7107 77.5012 55.5527 77.3883 55.3722 77.2981C55.0562 77.0949 54.7176 76.9143 54.4016 76.8015C54.0856 76.6661 53.747 76.5983 53.4536 76.4629C53.1601 76.35 52.9118 76.1469 52.7087 75.9663C52.5055 75.7858 52.325 75.6052 52.1895 75.4472C52.0541 75.2892 51.9413 75.1086 51.9638 74.9506C51.9638 74.7926 52.0315 74.6797 52.0767 74.612C52.1444 74.5443 52.1895 74.5443 52.1895 74.5443C52.1895 74.5443 52.1444 74.5669 52.0993 74.6346C52.0541 74.7023 52.009 74.7926 52.009 74.9506C52.009 75.2666 52.3927 75.5375 52.7764 75.8986C52.9796 76.0792 53.2053 76.2372 53.4987 76.35C53.7921 76.4629 54.1081 76.5532 54.4467 76.6886C54.7853 76.8241 55.1239 76.9821 55.4399 77.1852C55.5979 77.2981 55.7784 77.3883 55.9364 77.5012C56.0944 77.6141 56.2524 77.7495 56.433 77.8398C56.7716 78.0429 57.1779 77.9075 57.5616 77.8624C57.9453 77.7946 58.3065 77.7269 58.6676 77.6818C59.3673 77.5689 59.9994 77.4561 60.5411 77.3658C61.0602 77.2755 61.4891 77.2303 61.8051 77.1626C61.9405 77.1401 62.0534 77.1175 62.1437 77.1175C62.1888 77.1175 62.2339 77.1175 62.2339 77.1175Z" fill="#EB996E"/>
<path d="M60.6118 78.9683C60.6118 78.9909 60.4086 79.0586 60.07 79.1263C59.7315 79.1941 59.2575 79.2843 58.7383 79.3521C58.2192 79.4198 57.7452 79.4424 57.384 79.4198C57.0229 79.4198 56.8423 79.2843 56.8423 79.2618C56.8423 79.2392 57.0454 79.3295 57.384 79.3295C57.7226 79.3069 58.1966 79.2844 58.7157 79.2166C59.2349 79.1489 59.7089 79.0812 60.0475 79.0361C60.386 78.9909 60.6118 78.9458 60.6118 78.9683Z" fill="#EB996E"/>
<path d="M64.5587 76.3951C64.5587 76.3951 64.5587 76.4177 64.5361 76.4854C64.5136 76.5531 64.491 76.6209 64.4458 76.7337C64.3556 76.9369 64.1298 77.2077 63.7913 77.4109C63.6107 77.5237 63.4075 77.614 63.2044 77.6817C63.0915 77.7269 63.0013 77.772 62.9787 77.8623C62.9561 77.9526 62.9335 78.1106 62.8884 78.2234C62.7981 78.4943 62.6401 78.7426 62.3918 78.9232C62.1435 79.1037 61.8501 79.194 61.5567 79.2617C61.2632 79.3295 60.9698 79.3746 60.7215 79.51C60.4732 79.6455 60.2475 79.8035 60.0218 79.9389C59.9089 80.0066 59.7961 80.0743 59.6832 80.142C59.5704 80.1872 59.4349 80.2323 59.3221 80.2323C59.0738 80.2549 58.8481 80.2098 58.6675 80.1646C58.2838 80.0518 57.9903 79.9163 57.7872 79.826C57.584 79.7357 57.4712 79.668 57.4712 79.668C57.4712 79.668 57.584 79.6906 57.7872 79.7809C57.9903 79.8486 58.2838 79.984 58.6675 80.0743C58.8481 80.1195 59.0738 80.142 59.2995 80.1195C59.4124 80.1195 59.5252 80.0743 59.6381 80.0292C59.7284 79.984 59.8412 79.8938 59.9541 79.826C60.1798 79.6906 60.4055 79.5326 60.6538 79.3972C60.9247 79.2617 61.2181 79.194 61.5115 79.1489C61.805 79.0812 62.0758 78.9909 62.3015 78.8329C62.5272 78.6749 62.6853 78.4492 62.753 78.2234C62.7981 78.1106 62.7981 77.9977 62.8433 77.8397C62.8884 77.6817 63.0464 77.614 63.1593 77.5914C63.385 77.5237 63.5655 77.4334 63.7461 77.3431C64.0847 77.14 64.2878 76.9143 64.4007 76.7111C64.5136 76.5306 64.5587 76.3951 64.5587 76.3951Z" fill="#EB996E"/>
<path d="M61.5593 71.4068C61.5818 71.4294 60.8144 72.0839 59.8438 72.8514C58.8732 73.6188 58.0607 74.2283 58.0381 74.2057C58.0155 74.1831 58.783 73.5285 59.7535 72.7611C60.7241 71.9937 61.5367 71.3842 61.5593 71.4068Z" fill="#EB996E"/>
<path d="M60.7596 12.0645C65.9532 15.0941 67.5477 18.0098 67.2061 47.0302H51.648L51.3975 10.0143C51.3975 10.0143 56.705 9.69544 60.7596 12.0645Z" fill="#404040"/>
<path d="M42.4906 12.0645C37.297 15.0941 35.7025 18.0098 36.0441 47.0302H51.6022L51.8072 10.0143C51.83 10.0143 46.5225 9.69544 42.4906 12.0645Z" fill="#404040"/>
<path d="M40.0307 27.6908C40.0307 27.6908 41.7391 41.0165 42.1036 41.6543C42.4681 42.2921 49.1879 45.9595 51.4202 45.8001V12.3833C48.8006 12.3833 38.3906 12.9983 40.0307 27.6908Z" fill="#FFBE9D"/>
<path d="M51.5569 12.3833C51.5114 12.3833 51.443 12.3833 51.3975 12.3833V45.8228C53.6298 45.9823 60.3496 42.3149 60.7141 41.6771C61.0785 41.0393 62.787 27.7136 62.787 27.7136C64.0398 12.9528 54.2676 12.4061 51.5569 12.3833Z" fill="#FFBE9D"/>
<path d="M51.7845 10.0144C51.7389 10.0144 51.6706 10.0144 51.6022 10.0144C51.5339 10.0144 51.4656 10.0144 51.3972 10.0144C48.436 10.0372 37.4337 12.2923 39.9622 27.3037C39.9622 27.3037 46.7275 26.4608 51.3972 23.7957C56.7047 20.7661 60.2355 16.0281 60.2355 16.0281C60.9188 11.5178 54.5407 10.0372 51.7845 10.0144Z" fill="#404040"/>
<defs>
<linearGradient id="paint0_linear_6594_9818" x1="50.0707" y1="53.0562" x2="50.0707" y2="103.707" gradientUnits="userSpaceOnUse">
<stop stop-color="#F17C7C"/>
<stop offset="0.755208" stop-color="white"/>
<stop offset="1" stop-color="white"/>
</linearGradient>
</defs>
</svg>
