{
  "kind": "collectionType",
  "collectionName": "resource_categories",
  "info": {
    "singularName": "resource-category",
    "pluralName": "resource-categories",
    "displayName": "ResourceCategory",
    "description": ""
  },
  "options": {
    "draftAndPublish": true
  },
  "pluginOptions": {},
  "attributes": {
    "category_name": {
      "type": "string"
    },
    "display_order": {
      "type": "integer",
      "default": 0
    },
    "icon": {
      "allowedTypes": [
        "images"
      ],
      "type": "media",
      "multiple": false
    }
  }
}
